Urban Data & Methods II: Computational Urban Analysis
…
Housing Price - Import Data

Code

library(cansim) #this is R package 
#for extracting Canadian Statistics
table_id <- "18-10-0205-01"
thedata <- get_cansim(table_id)
thedata

Output

## # A tibble: 59,160 x 21
##    REF_DATE GEO     DGUID UOM   UOM_ID SCALAR_FACTOR SCALAR_ID VECTOR COORDINATE
##    <chr>    <chr>   <chr> <chr> <chr>  <chr>         <chr>     <chr>  <chr>     
##  1 1981-01  Canada  2016~ Inde~ 347    units         0         v1119~ 1.1       
##  2 1981-01  Canada  2016~ Inde~ 347    units         0         v1119~ 1.2       
##  3 1981-01  Canada  2016~ Inde~ 347    units         0         v1119~ 1.3       
##  4 1981-01  Atlant~ 2016~ Inde~ 347    units         0         v1119~ 2.1       
##  5 1981-01  Atlant~ 2016~ Inde~ 347    units         0         v1119~ 2.2       
##  6 1981-01  Atlant~ 2016~ Inde~ 347    units         0         v1119~ 2.3       
##  7 1981-01  Newfou~ 2016~ Inde~ 347    units         0         v1119~ 3.1       
##  8 1981-01  Newfou~ 2016~ Inde~ 347    units         0         v1119~ 3.2       
##  9 1981-01  Newfou~ 2016~ Inde~ 347    units         0         v1119~ 3.3       
## 10 1981-01  St. Jo~ 2011~ Inde~ 347    units         0         v1119~ 4.1       
## # ... with 59,150 more rows, and 12 more variables: VALUE <dbl>, STATUS <chr>,
## #   SYMBOL <chr>, TERMINATED <chr>, DECIMALS <chr>, GeoUID <chr>,
## #   `Hierarchy for GEO` <chr>,
## #   `Classification Code for New housing price indexes` <chr>,
## #   `Hierarchy for New housing price indexes` <chr>, val_norm <dbl>,
## #   Date <date>, `New housing price indexes` <fct>

Housing Price - Understanding the data

Code

get_cansim_table_overview(table_id)
ls.str(thedata)

Output

## # A tibble: 40 x 3
## # Groups:   GEO [40]
##    GEO                                 GeoUID     n
##    <chr>                               <chr>  <int>
##  1 Alberta                             48      1479
##  2 Atlantic Region                     1       1479
##  3 British Columbia                    59      1479
##  4 Calgary, Alberta                    825     1479
##  5 Canada                              11124   1479
##  6 Charlottetown, Prince Edward Island 105     1479
##  7 Edmonton, Alberta                   835     1479
##  8 Greater Sudbury, Ontario            580     1479
##  9 Guelph, Ontario                     550     1479
## 10 Halifax, Nova Scotia                205     1479
## # ... with 30 more rows
…
